<?xml version="1.0" encoding="utf-8"?>
<!-- Generator: Adobe Illustrator 25.0.1, SVG Export Plug-In . SVG Version: 6.00 Build 0)  -->
<svg version="1.1" id="Layer_1" xmlns="http://www.w3.org/2000/svg" xmlns:xlink="http://www.w3.org/1999/xlink" x="0px" y="0px"
	 viewBox="0 0 500 500" style="enable-background:new 0 0 500 500;" xml:space="preserve">
<style type="text/css">
	.st0{fill:none;stroke:#06b6d4;stroke-width:35;stroke-miterlimit:10;}
	.st1{display:none;fill:none;stroke:#06b6d4;stroke-width:13;stroke-miterlimit:10;}
	.st4{fill:#06b6d4;}
</style>
<circle class="st0" cx="250" cy="250" r="225"/>
<line class="st1" x1="284" y1="368.2" x2="318.7" y2="426"/>
<line class="st1" x1="307.5" y1="426" x2="388.7" y2="285.4"/>
<g>
	<path class="st4" d="M283.1,230.3l27.8,66c3.6,8.5,8.3,12.8,14.1,12.8l5.3-0.1h55.1c12.1,0,18.2,4.1,18.2,12.4
		c0,6.1-2.1,10.8-6.3,14.1c-4.2,3.3-10.2,5-18.1,5h-60.8c-16.7,0-28.3-7.9-34.8-23.7L245.5,225l-17.7,43.5
		c-8.4,20.8-14.4,34.9-18,42.3c-3.6,7.3-7.7,14.1-12.3,20.4c-16.8,22.7-37.9,34-63.4,34c-18.5,0-33.6-5.8-45.1-17.4
		c-11.5-11.6-17.3-26.8-17.3-45.6c0-24.5,9.1-46.1,27.2-64.7c9.8-9.9,22-18,36.7-24.1c14.7-6.1,29.2-9.2,43.6-9.2
		c6.9,0,12.4,1.6,16.7,4.7c4.3,3.1,6.4,7.2,6.4,12.2c0,5.5-2.3,9.8-6.9,13.1c-2.6,1.8-7.7,3.2-15.3,4c-17.6,1.6-31.7,5.6-42.3,12
		c-9,5.5-16,12.5-21.2,21.1c-5.2,8.6-7.8,17.6-7.8,27c0,9.9,2.5,17.8,7.6,23.5c5.1,5.8,11.9,8.6,20.6,8.6c10.7,0,20-4.5,27.9-13.6
		c7.9-9.1,16.5-25.1,25.9-48.3l45.6-112.5h-13.6c-12.1,0-18.2-4.2-18.2-12.5c0-6.1,2.1-10.7,6.3-14s10.2-4.9,17.9-4.9h43.8
		c11.4,0,19.8,0.7,25.1,2c5.3,1.3,10.4,4,15.4,8.2c10.2,8.5,15.3,20.5,15.3,36c0,14.1-4.2,26.6-12.5,37.5
		C307.7,219.2,296.7,226.5,283.1,230.3z M253.4,205.5l3.8-0.3c10-0.6,17.5-2.5,22.4-5.8c9.5-6.2,14.2-14.6,14.2-25.2
		c0-12.1-5.8-18.2-17.4-18.2h-2.9L253.4,205.5z"/>
	<path class="st4" d="M367.9,258.1l30.6-41.7l2.4-3.6c5.1-7.4,10.8-11.1,17.1-11.1c4.1,0,7.5,1.3,10.2,3.9c2.6,2.6,4,5.9,4,10
		c0,4.4-2.6,10-7.9,16.9l-48.8,63.1c-5.5,7.1-11.9,10.7-19.2,10.7c-6.2,0-11.2-2.2-14.8-6.5c-3.6-4.4-5.4-10.3-5.4-17.9
		c0-1.6,0-2.9,0.1-3.8l4.7-52.6c0.6-7.1,2.5-12.5,5.7-16.3c3.2-3.7,7.5-5.6,13-5.6c8.3,0,12.5,4.2,12.5,12.7c0,1.2-0.2,3.3-0.5,6.3
		L367.9,258.1z"/>
</g>
</svg>
