[
  {
    "title": "DunaQ",
    "image": "/assets/img/projects/dunaq.png",
    "typeEn": "Informational",
    "typeNl": "Informationeel",
    "skills": ["HTML", "CSS", "PostCSS", "TailwindCSS", "PHP", "Laravel", "JavaScript", "AlpineJS", "NPM", "Adobe Photoshop"],
    "favorite": true
  }, 
  {
    "title": "We Are Konzept",
    "image": "/assets/img/projects/wearekonzept.png",
    "typeEn": "Informational",
    "typeNl": "Informationeel",
    "link": "https://wearekonzept.nl",
    "skills": ["HTML", "CSS", "SCSS", "Bootstrap", "jQuery", "PHP", "Laravel", "Pyro CMS", "Adobe Photoshop", "Adobe Illustrator"],
    "favorite": true
  }, 
  {
    "title": "De Museumwinkel",
    "image": "/assets/img/projects/demuseumwinkel.png",
    "typeEn": "Webshop",
    "typeNl": "Webwinkel",
    "link": "https://demuseumwinkel.com",
    "skills": ["HTML", "CSS", "SCSS", "Bootstrap", "jQuery", "PHP", "Opencart"]
  },
  {
    "title": "Cashflows Go",
    "image": "/assets/img/projects/cashflowsgo.png",
    "typeEn": "Web application",
    "typeNl": "Webapplicatie",
    "link": "https://www.cashflows.com/solutions/cashflows-go",
    "skills": ["HTML", "CSS", "PostCSS", "JavaScript", "TailwindCSS", "Vue", "NPM"]
  },
  {
    "title": "Kennelcare",
    "image": "/assets/img/projects/kennelcare.png",
    "typeEn": "Web application",
    "typeNl": "Webapplicatie",
    "link": "https://www.kennelcare.nl/",
    "skills": ["HTML", "CSS", "SCSS", "Bootstrap", "JavaScript", "jQuery", "PHP", "Adobe Photoshop", "Adobe Illustrator"]
  },
  {
    "title": "Simply Me",
    "image": "/assets/img/projects/simplyme.png",
    "typeEn": "Informational",
    "typeNl": "Informationeel",
    "link": "https://simplyme.nl",
    "skills": ["HTML", "CSS", "SCSS", "Bootstrap", "jQuery", "PHP", "Laravel", "Pyro CMS", "Composer"]
  },
  {
    "title": "Veraluxe",
    "image": "/assets/img/projects/veraluxe.png",
    "typeEn": "Informational",
    "typeNl": "Informationeel",
    "link": "https://veraluxe.nl",
    "skills": ["HTML", "CSS", "SCSS", "Bootstrap", "jQuery", "PHP", "Laravel", "Pyro CMS", "Composer"]
  },
  {
    "title": "Veraluxe Horeca",
    "image": "/assets/img/projects/veraluxehoreca.png",
    "typeEn": "Informational",
    "typeNl": "Informationeel",
    "link": "https://veraluxehoreca.nl",
    "skills": ["HTML", "CSS", "SCSS", "Bootstrap", "jQuery", "PHP", "Laravel", "Pyro CMS", "Composer"]
  }
]